<svg id="building" xmlns="http://www.w3.org/2000/svg" width="16" height="16" viewBox="0 0 16 16">
  <path id="Union_13" data-name="Union 13" d="M0,13V6.5a.969.969,0,0,1,1-.929H6V.928A.966.966,0,0,1,7,0h6a.967.967,0,0,1,1,.928V13ZM6,7.893a.483.483,0,0,1,.5.464v3.714H13V.928H7V6.5H1v5.572H2.5V8.357A.483.483,0,0,1,3,7.893ZM3.5,12.072h2V8.821h-2ZM11,9.285V8.357h1v.928Zm-3,0V8.357H9v.928ZM11,6.5V5.571h1V6.5Zm-3,0V5.571H9V6.5Zm3-2.785V2.785h1v.929Zm-3,0V2.785H9v.929Z" transform="translate(1 1)" fill="#1d1d1d"/>
  <rect id="_Transparent_Rectangle_" data-name="&lt;Transparent Rectangle&gt;" width="16" height="16" fill="none"/>
</svg>
