<svg id="phone" xmlns="http://www.w3.org/2000/svg" width="16" height="16" viewBox="0 0 16 16">
  <path id="Path_103951" data-name="Path 103951" d="M14.2,15.661h-.083C4.544,15.111,3.185,7.037,3,4.573A1.461,1.461,0,0,1,4.339,3H7.022a.974.974,0,0,1,.906.614l.74,1.821a.974.974,0,0,1-.214,1.052L7.417,7.534a4.563,4.563,0,0,0,3.691,3.7l1.057-1.047a.974.974,0,0,1,1.057-.2l1.836.735a.974.974,0,0,1,.6.906V14.2A1.461,1.461,0,0,1,14.2,15.661ZM4.456,3.974a.487.487,0,0,0-.487.487V4.5c.224,2.883,1.661,9.7,10.2,10.187a.487.487,0,0,0,.516-.458v-2.6l-1.836-.735-1.4,1.388-.234-.029A5.669,5.669,0,0,1,6.4,7.441l-.029-.234,1.383-1.4-.73-1.836Z" transform="translate(-1.534 -1.539)"/>
  <rect id="_Transparent_Rectangle_" data-name="&lt;Transparent Rectangle&gt;" width="16" height="16" fill="none"/>
</svg>
