<svg id="education" xmlns="http://www.w3.org/2000/svg" width="16" height="16" viewBox="0 0 16 16">
  <path id="Path_103015" data-name="Path 103015" d="M16,25H15V23.5A2.5,2.5,0,0,0,12.5,21h-3A2.5,2.5,0,0,0,7,23.5V25H6V23.5A3.5,3.5,0,0,1,9.5,20h3A3.5,3.5,0,0,1,16,23.5Z" transform="translate(-3 -10)"/>
  <path id="Path_103016" data-name="Path 103016" d="M4.5,6a.5.5,0,0,0-.5.5V11H5V6.5A.5.5,0,0,0,4.5,6Z" transform="translate(-2 -3)"/>
  <path id="Path_103017" data-name="Path 103017" d="M4,2V3H6.5V6.5a3.5,3.5,0,1,0,7,0V3H16V2ZM7.5,3h5V4.5h-5ZM10,9A2.5,2.5,0,0,1,7.5,6.5v-1h5v1A2.5,2.5,0,0,1,10,9Z" transform="translate(-2 -1)"/>
  <rect id="_Transparent_Rectangle_" data-name="&lt;Transparent Rectangle&gt;" width="16" height="16" fill="none"/>
</svg>
