<svg id="events--alt" xmlns="http://www.w3.org/2000/svg" width="15.2" height="15.2" viewBox="0 0 15.2 15.2">
  <path id="Path_103018" data-name="Path 103018" d="M18,28.375h.95v-.95a.475.475,0,0,1,.475-.475h2.85a.475.475,0,0,1,.475.475v.95h.95v-.95A1.427,1.427,0,0,0,22.275,26h-2.85A1.427,1.427,0,0,0,18,27.425Z" transform="translate(-9.45 -13.65)"/>
  <path id="Path_103019" data-name="Path 103019" d="M21.9,20.8a1.9,1.9,0,1,1,1.9-1.9A1.9,1.9,0,0,1,21.9,20.8Zm0-2.85a.95.95,0,1,0,.95.95A.95.95,0,0,0,21.9,17.95Z" transform="translate(-10.5 -8.925)"/>
  <path id="Path_103020" data-name="Path 103020" d="M2,28.375h.95v-.95a.475.475,0,0,1,.475-.475h2.85a.475.475,0,0,1,.475.475v.95H7.7v-.95A1.427,1.427,0,0,0,6.275,26H3.425A1.427,1.427,0,0,0,2,27.425Z" transform="translate(-1.05 -13.65)"/>
  <path id="Path_103021" data-name="Path 103021" d="M5.9,20.8a1.9,1.9,0,1,1,1.9-1.9A1.9,1.9,0,0,1,5.9,20.8Zm0-2.85a.95.95,0,1,0,.95.95A.95.95,0,0,0,5.9,17.95Z" transform="translate(-2.1 -8.925)"/>
  <path id="Path_103022" data-name="Path 103022" d="M18,13.375h.95v-.95a.475.475,0,0,1,.475-.475h2.85a.475.475,0,0,1,.475.475v.95h.95v-.95A1.427,1.427,0,0,0,22.275,11h-2.85A1.427,1.427,0,0,0,18,12.425Z" transform="translate(-9.45 -5.775)"/>
  <path id="Path_103023" data-name="Path 103023" d="M21.9,5.8a1.9,1.9,0,1,1,1.9-1.9,1.9,1.9,0,0,1-1.9,1.9Zm0-2.85a.95.95,0,1,0,.95.95A.95.95,0,0,0,21.9,2.95Z" transform="translate(-10.5 -1.05)"/>
  <path id="Path_103024" data-name="Path 103024" d="M2,13.375h.95v-.95a.476.476,0,0,1,.475-.475h2.85a.476.476,0,0,1,.475.475v.95H7.7v-.95A1.427,1.427,0,0,0,6.275,11H3.425A1.427,1.427,0,0,0,2,12.425Z" transform="translate(-1.05 -5.775)"/>
  <path id="Path_103025" data-name="Path 103025" d="M5.9,5.8A1.9,1.9,0,1,1,7.8,3.9,1.9,1.9,0,0,1,5.9,5.8Zm0-2.85a.95.95,0,1,0,.95.95A.95.95,0,0,0,5.9,2.95Z" transform="translate(-2.1 -1.05)"/>
  <rect id="_Transparent_Rectangle_" data-name="&lt;Transparent Rectangle&gt;" width="15.2" height="15.2" fill="none"/>
</svg>
