<svg xmlns="http://www.w3.org/2000/svg" width="16" height="16" viewBox="0 0 16 16">
  <g id="Group_173422" data-name="Group 173422" transform="translate(-840 -1105)">
    <rect id="Rectangle_8370" data-name="Rectangle 8370" width="16" height="16" transform="translate(840 1105)" fill="#fff" opacity="0"/>
    <path id="Icon_zocial-linkedin" data-name="Icon zocial-linkedin" d="M-.18,1.668A1.36,1.36,0,0,1,.262.626,1.621,1.621,0,0,1,1.411.216a1.573,1.573,0,0,1,1.124.4,1.424,1.424,0,0,1,.442,1.086,1.33,1.33,0,0,1-.429,1.01,1.624,1.624,0,0,1-1.162.417H1.373A1.545,1.545,0,0,1,.249,2.716,1.4,1.4,0,0,1-.18,1.668Zm.164,11.048V4.282h2.8v8.434h-2.8Zm4.356,0h2.8V8.006a1.818,1.818,0,0,1,.1-.682A1.831,1.831,0,0,1,7.781,6.6a1.372,1.372,0,0,1,.9-.3Q10.1,6.3,10.1,8.208v4.507h2.8V7.88a4.064,4.064,0,0,0-.884-2.835A3.015,3.015,0,0,0,9.681,4.08a2.865,2.865,0,0,0-2.538,1.4v.025H7.13l.013-.025v-1.2H4.34q.025.4.025,2.513T4.34,12.716Z" transform="translate(841.711 1106.334)" fill="#fff"/>
  </g>
</svg>
