<svg id="email" xmlns="http://www.w3.org/2000/svg" width="20" height="20" viewBox="0 0 20 20">
  <path id="Path_103946" data-name="Path 103946" d="M18.25,6h-15A1.25,1.25,0,0,0,2,7.25v10A1.25,1.25,0,0,0,3.25,18.5h15a1.25,1.25,0,0,0,1.25-1.25v-10A1.25,1.25,0,0,0,18.25,6ZM16.875,7.25,10.75,11.488,4.625,7.25ZM3.25,17.25V7.819l7.144,4.944a.625.625,0,0,0,.712,0L18.25,7.819V17.25Z" transform="translate(-0.75 -2.25)"/>
  <rect id="_Transparent_Rectangle_" data-name="&lt;Transparent Rectangle&gt;" width="20" height="20" fill="none"/>
</svg>
