<svg id="add" xmlns="http://www.w3.org/2000/svg" width="20" height="20" viewBox="0 0 20 20">
  <path id="Path_103030" data-name="Path 103030" d="M13.625,12.375V8h-1.25v4.375H8v1.25h4.375V18h1.25V13.625H18v-1.25Z" transform="translate(-3 -3)" fill="#0064bf"/>
  <rect id="Rectangle_7715" data-name="Rectangle 7715" width="20" height="20" fill="none"/>
</svg>
