<svg id="building" xmlns="http://www.w3.org/2000/svg" width="20" height="20" viewBox="0 0 20 20">
  <path id="Union_13" data-name="Union 13" d="M0,17V8.5A1.256,1.256,0,0,1,1.287,7.285H7.714V1.214A1.251,1.251,0,0,1,9,0h7.712A1.253,1.253,0,0,1,18,1.214V17Zm7.714-6.678a.625.625,0,0,1,.642.607v4.857h8.356V1.214H9V8.5H1.287v7.286H3.214V10.929a.626.626,0,0,1,.644-.607ZM4.5,15.786H7.072V11.536H4.5Zm9.642-3.644V10.929h1.286v1.213Zm-3.856,0V10.929h1.285v1.213ZM14.142,8.5V7.285h1.286V8.5Zm-3.856,0V7.285h1.285V8.5Zm3.856-3.642V3.642h1.286V4.858Zm-3.856,0V3.642h1.285V4.858Z" transform="translate(1 1)"/>
  <rect id="_Transparent_Rectangle_" data-name="&lt;Transparent Rectangle&gt;" width="20" height="20" fill="none"/>
</svg>
