<svg id="printer" xmlns="http://www.w3.org/2000/svg" width="20" height="20" viewBox="0 0 20 20">
  <path id="Path_103950" data-name="Path 103950" d="M18.25,6.75H16.375V3H5.125V6.75H3.25A1.25,1.25,0,0,0,2,8v6.25A1.25,1.25,0,0,0,3.25,15.5H5.125v3.75h11.25V15.5H18.25a1.25,1.25,0,0,0,1.25-1.25V8A1.25,1.25,0,0,0,18.25,6.75ZM6.375,4.25h8.75v2.5H6.375ZM15.125,18H6.375V11.75h8.75Zm3.125-3.75H16.375V10.5H5.125v3.75H3.25V8h15Z" transform="translate(-0.75 -1.125)" fill="#1d1d1d"/>
  <rect id="_Transparent_Rectangle_" data-name="&lt;Transparent Rectangle&gt;" width="20" height="20" fill="none"/>
</svg>
