<svg xmlns="http://www.w3.org/2000/svg" width="16" height="16" viewBox="0 0 16 16">
  <g id="Group_15279" data-name="Group 15279" transform="translate(-6293 681)">
    <rect id="Rectangle_7483" data-name="Rectangle 7483" width="16" height="16" transform="translate(6293 -681)" opacity="0"/>
    <path id="Icon_open-external-link" data-name="Icon open-external-link" d="M0,0V12.479H12.479V9.36H10.92v1.56H1.56V1.56H3.12V0ZM6.24,0,8.58,2.34l-3.9,3.9L6.24,7.8l3.9-3.9,2.34,2.34V0Z" transform="translate(6294.76 -679.239)"/>
  </g>
</svg>
