<svg id="bullhorn" xmlns="http://www.w3.org/2000/svg" width="20" height="20" viewBox="0 0 20 20">
  <path id="Path_103053" data-name="Path 103053" d="M17.75,6V7.356L5.025,9.669A1.25,1.25,0,0,0,4,10.919v2.712a1.25,1.25,0,0,0,1.025,1.25L6.5,15.1v2.15A1.25,1.25,0,0,0,7.75,18.5h5A1.25,1.25,0,0,0,14,17.25v-.788l3.75.681V18.5H19V6Zm-5,11.25h-5V15.331l5,.906Zm-7.5-3.644V10.894l12.5-2.269v7.25Z" transform="translate(-1.5 -2.25)"/>
  <rect id="_Transparent_Rectangle_" data-name="&lt;Transparent Rectangle&gt;" width="20" height="20" fill="none"/>
</svg>
