<svg id="partnership" xmlns="http://www.w3.org/2000/svg" width="20" height="20" viewBox="0 0 20 20">
  <path id="Path_103064" data-name="Path 103064" d="M6.5,6A2.5,2.5,0,1,1,9,3.5,2.5,2.5,0,0,1,6.5,6Zm0-3.75A1.25,1.25,0,1,0,7.75,3.5,1.25,1.25,0,0,0,6.5,2.25Z" transform="translate(-1.5 -0.375)"/>
  <path id="Path_103065" data-name="Path 103065" d="M22.5,6A2.5,2.5,0,1,1,25,3.5,2.5,2.5,0,0,1,22.5,6Zm0-3.75A1.25,1.25,0,1,0,23.75,3.5,1.25,1.25,0,0,0,22.5,2.25Z" transform="translate(-7.5 -0.375)"/>
  <path id="Path_103066" data-name="Path 103066" d="M17,22.5H14.5a1.25,1.25,0,0,1-1.25-1.25V16.875H14.5V21.25H17V15.625h1.25v-3.75a.625.625,0,0,0-.625-.625H13.613l-2.863,5-2.863-5H3.875a.625.625,0,0,0-.625.625v3.75H4.5V21.25H7V16.875H8.25V21.25A1.25,1.25,0,0,1,7,22.5H4.5a1.25,1.25,0,0,1-1.25-1.25V16.875A1.25,1.25,0,0,1,2,15.625v-3.75A1.875,1.875,0,0,1,3.875,10H8.613l2.137,3.75L12.887,10h4.738A1.875,1.875,0,0,1,19.5,11.875v3.75a1.25,1.25,0,0,1-1.25,1.25V21.25A1.25,1.25,0,0,1,17,22.5Z" transform="translate(-0.75 -3.75)"/>
  <rect id="_Transparent_Rectangle_" data-name="&lt;Transparent Rectangle&gt;" width="20" height="20" fill="none"/>
</svg>
