<svg xmlns="http://www.w3.org/2000/svg" width="20" height="20" viewBox="0 0 20 20">
  <g id="whistle" transform="translate(-207 -2485)">
    <rect id="Rectangle_5593" data-name="Rectangle 5593" width="20" height="20" transform="translate(207 2485)" opacity="0"/>
    <path id="Path_10272" data-name="Path 10272" d="M-68.893-38.153a.709.709,0,0,1-.75.438c-1.653-.011-3.305-.005-4.958-.005h-.223v.229c-.026.524-.019,1.052-.086,1.571a4.657,4.657,0,0,1-1.177,2.516,5.289,5.289,0,0,1-4.674,1.855,5.233,5.233,0,0,1-4.308-2.875,4.925,4.925,0,0,1-.54-2.928,4.938,4.938,0,0,1,.452-1.583,1.614,1.614,0,0,1-1.217-1.812A1.593,1.593,0,0,1-85.085-42.1a1.651,1.651,0,0,1,1.112.14,1.668,1.668,0,0,1,.763.764c.423-.183.823-.381,1.241-.533a5.357,5.357,0,0,1,1.863-.283q5.231,0,10.463,0a.706.706,0,0,1,.75.444ZM-79.747-40.88c-.351.016-.677.007-1,.049A4.067,4.067,0,0,0-83.9-38.784a3.807,3.807,0,0,0,.2,4.353,4.2,4.2,0,0,0,4.584,1.625,4.125,4.125,0,0,0,3.08-3.588c.037-.6.02-1.194.029-1.791a1.074,1.074,0,0,1,.017-.231.6.6,0,0,1,.671-.443h5.231v-2h-8.477v.191c0,.448,0,.9,0,1.344a.569.569,0,0,1-.584.554.566.566,0,0,1-.584-.534c-.014-.259-.006-.52-.007-.78s0-.51,0-.8Zm-5.469.362a.475.475,0,0,0,.142.338.475.475,0,0,0,.341.136.476.476,0,0,0,.342-.133.476.476,0,0,0,.145-.337.473.473,0,0,0-.142-.339.473.473,0,0,0-.341-.135.473.473,0,0,0-.342.132.473.473,0,0,0-.145.337Z" transform="translate(294.643 2532.142)"/>
  </g>
</svg>
