<svg id="email" xmlns="http://www.w3.org/2000/svg" width="16" height="16" viewBox="0 0 16 16">
  <path id="Path_103946" data-name="Path 103946" d="M15,6H3A1,1,0,0,0,2,7v8a1,1,0,0,0,1,1H15a1,1,0,0,0,1-1V7A1,1,0,0,0,15,6ZM13.9,7,9,10.39,4.1,7ZM3,15V7.455L8.715,11.41a.5.5,0,0,0,.57,0L15,7.455V15Z" transform="translate(-1 -3)" fill="#1d1d1d"/>
  <rect id="_Transparent_Rectangle_" data-name="&lt;Transparent Rectangle&gt;" width="16" height="16" fill="none"/>
</svg>
