<svg xmlns="http://www.w3.org/2000/svg" width="18.867" height="32" viewBox="0 0 18.867 32">
  <path id="expand_more_FILL0_wght400_GRAD0_opsz48" d="M16,0,0,16l2.867,2.867L16,5.667,29.133,18.8,32,15.934Z" transform="translate(18.867) rotate(90)"/>
</svg>
